<svg id="SvgjsSvg1000" xmlns="http://www.w3.org/2000/svg" version="1.1" xmlns:xlink="http://www.w3.org/1999/xlink" xmlns:svgjs="http://svgjs.com/svgjs" width="10.054394773264676" height="18.693863067969232">
    <defs id="SvgjsDefs1001"></defs>
    <path
        id="SvgjsPath1007"
        d="M459.674 1566L451.00199999999995 1575L459.674 1584 "
        fill-opacity="0"
        fill="#ffffff"
        stroke-dasharray="0"
        stroke-linejoin="miter"
        stroke-linecap="butt"
        stroke-opacity="1"
        stroke="#3399ff"
        stroke-miterlimit="50"
        stroke-width="1"
        transform="matrix(1,0,0,1,-450.47280261336766,-1565.6530684660154)"></path>
</svg>
